E;1-Jeudi 9h00;123
A;1-Jeudi 9h00;123
E;1-Jeudi 9h00;131
A;1-Jeudi 9h00;131
E;1-Jeudi 9h00;135
G;1-Jeudi 9h00;135
E;2-Jeudi 10h15;123
A;2-Jeudi 10h15;123
E;2-Jeudi 10h15;131
A;2-Jeudi 10h15;131
E;2-Jeudi 10h15;135
G;2-Jeudi 10h15;135
C;3-Jeudi 14h00;123
D;3-Jeudi 14h00;123
C;3-Jeudi 14h00;131
D;3-Jeudi 14h00;131
C;3-Jeudi 14h00;135
D;3-Jeudi 14h00;135
C;4-Jeudi 15h15;123
D;4-Jeudi 15h15;123
C;4-Jeudi 15h15;131
D;4-Jeudi 15h15;131
C;4-Jeudi 15h15;135
D;4-Jeudi 15h15;135
B;5-Vendredi 8h15;123
F;5-Vendredi 8h15;123
B;5-Vendredi 8h15;131
W;5-Vendredi 8h15;131
Y;5-Vendredi 8h15;135
F;5-Vendredi 8h15;135
Z;5-Vendredi 8h15;126
X;5-Vendredi 8h15;126
B;6-Vendredi 9h30;123
F;6-Vendredi 9h30;123
B;6-Vendredi 9h30;131
W;6-Vendredi 9h30;131
Y;6-Vendredi 9h30;135
F;6-Vendredi 9h30;135
Z;6-Vendredi 9h30;126
X;6-Vendredi 9h30;126
B;7-Vendredi 10h45;131
W;7-Vendredi 10h45;131
Y;7-Vendredi 10h45;135
F;7-Vendredi 10h45;135
Z;7-Vendredi 10h45;126
X;7-Vendredi 10h45;126